912828U40   $98.990234  $99.001953
912828U73   $98.994141  $99.005859
912828U65   $99.001953  $99.005859
912828U57   $99.001953  $99.013672
912828U24   $99.009766  $99.013672
912810RU4   $99.015625  $99.015625
912828U40   $99.013672  $99.025391
912828U73   $99.021484  $99.025391
912828U65   $99.025391  $99.029297
912828U57   $99.029297  $99.033203
912828U24   $99.031250  $99.039062
912810RU4   $99.037109  $99.041016
912828U40   $99.042969  $99.042969
912828U73   $99.044922  $99.048828
912828U65   $99.046875  $99.054688
912828U57   $99.052734  $99.056641
912828U24   $99.054688  $99.062500
912810RU4   $99.058594  $99.066406
912828U40   $99.060547  $99.072266
912828U73   $99.066406  $99.074219
912828U65   $99.074219  $99.074219
912828U57   $99.076172  $99.080078
912828U24   $99.076172  $99.087891
912810RU4   $99.085938  $99.085938
912828U40   $99.083984  $99.095703
912828U73   $99.093750  $99.093750
912828U65   $99.091797  $99.103516
912828U57   $99.095703  $99.107422
912828U24   $99.099609  $99.111328
912810RU4   $99.103516  $99.115234
912828U40   $99.113281  $99.113281
912828U73   $99.117188  $99.117188
912828U65   $99.119141  $99.123047
912828U57   $99.125000  $99.125000
912828U24   $99.125000  $99.132812
912810RU4   $99.126953  $99.138672
912828U40   $99.130859  $99.142578
912828U73   $99.134766  $99.146484
912828U65   $99.142578  $99.146484
912828U57   $99.148438  $99.148438
912828U24   $99.150391  $99.154297
912810RU4   $99.154297  $99.158203
912828U40   $99.154297  $99.166016
912828U73   $99.158203  $99.169922
912828U65   $99.162109  $99.173828
912828U57   $99.167969  $99.175781
912828U24   $99.171875  $99.179688
912810RU4   $99.173828  $99.185547
912828U40   $99.183594  $99.183594
912828U73   $99.181641  $99.193359
912828U65   $99.185547  $99.197266
912828U57   $99.193359  $99.197266
912828U24   $99.193359  $99.205078
912810RU4   $99.197266  $99.208984
912828U40   $99.207031  $99.207031
912828U73   $99.208984  $99.212891
912828U65   $99.212891  $99.216797
912828U57   $99.214844  $99.222656
912828U24   $99.218750  $99.226562
912810RU4   $99.222656  $99.230469
912828U40   $98.990234  $99.001953
912828U73   $98.994141  $99.005859
912828U65   $99.001953  $99.005859
912828U57   $99.001953  $99.013672
912828U24   $99.009766  $99.013672
912810RU4   $99.015625  $99.015625
912828U40   $99.013672  $99.025391
912828U73   $99.021484  $99.025391
912828U65   $99.025391  $99.029297
912828U57   $99.029297  $99.033203
912828U24   $99.031250  $99.039062
912810RU4   $99.037109  $99.041016
912828U40   $99.042969  $99.042969
912828U73   $99.044922  $99.048828
912828U65   $99.046875  $99.054688
912828U57   $99.052734  $99.056641
912828U24   $99.054688  $99.062500
912810RU4   $99.058594  $99.066406
912828U40   $99.060547  $99.072266
912828U73   $99.066406  $99.074219
912828U65   $99.074219  $99.074219
912828U57   $99.076172  $99.080078
912828U24   $99.076172  $99.087891
912810RU4   $99.085938  $99.085938
912828U40   $99.083984  $99.095703
912828U73   $99.093750  $99.093750
912828U65   $99.091797  $99.103516
912828U57   $99.095703  $99.107422
912828U24   $99.099609  $99.111328
912810RU4   $99.103516  $99.115234
912828U40   $99.113281  $99.113281
912828U73   $99.117188  $99.117188
912828U65   $99.119141  $99.123047
912828U57   $99.125000  $99.125000
912828U24   $99.125000  $99.132812
912810RU4   $99.126953  $99.138672
912828U40   $99.130859  $99.142578
912828U73   $99.134766  $99.146484
912828U65   $99.142578  $99.146484
912828U57   $99.148438  $99.148438
912828U24   $99.150391  $99.154297
912810RU4   $99.154297  $99.158203
912828U40   $99.154297  $99.166016
912828U73   $99.158203  $99.169922
912828U65   $99.162109  $99.173828
912828U57   $99.167969  $99.175781
912828U24   $99.171875  $99.179688
912810RU4   $99.173828  $99.185547
912828U40   $99.183594  $99.183594
912828U73   $99.181641  $99.193359
912828U65   $99.185547  $99.197266
912828U57   $99.193359  $99.197266
912828U24   $99.193359  $99.205078
912810RU4   $99.197266  $99.208984
912828U40   $99.207031  $99.207031
912828U73   $99.208984  $99.212891
912828U65   $99.212891  $99.216797
912828U57   $99.214844  $99.222656
912828U24   $99.218750  $99.226562
912810RU4   $99.222656  $99.230469
